{
  "SimpleLambdaStack": {
    "scheduledLambdaARN": "arn:aws:lambda:us-east-2:070307939360:function:SimpleLambdaStack-scheduledLambda8A84450D-GZZz628Dsec7",
    "scheduledLambdaqaversion": "3",
    "scheduledLambdaqaARN": "arn:aws:lambda:us-east-2:070307939360:function:SimpleLambdaStack-scheduledLambda8A84450D-GZZz628Dsec7:scheduledLambda-qa",
    "scheduledLambdastageARN": "arn:aws:lambda:us-east-2:070307939360:function:SimpleLambdaStack-scheduledLambda8A84450D-GZZz628Dsec7:scheduledLambda-stage",
    "scheduledLambdastageversion": "4",
    "scheduledLambdadevARN": "arn:aws:lambda:us-east-2:070307939360:function:SimpleLambdaStack-scheduledLambda8A84450D-GZZz628Dsec7:scheduledLambda-dev",
    "scheduledLambdadevversion": "2"
  }
}
